[
  {
    "description": "Updated pipes toolkit version to fix coloring of log info messages.",
    "type": "patch"
  },
  {
    "description": "Documentation improvements to provide more information about docker build and docker layers caching.",
    "type": "patch"
  }
]